Week 1 Tutorial
…
For easier interpretation, convert the counts in the contingency
table to proportions within each category of
writer_age_binned. Hint: proportions
within groups are calculated by dividing by sum(n).

# Converting the counts to proportions. 
df %>%
  group_by(writer_age_binned, writer_politicalIdeology) %>%
  summarise(n = n(), .groups = "drop") %>%
  group_by(writer_age_binned) %>%
  mutate(prop = n / sum(n))

## # A tibble: 36 × 4
## # Groups:   writer_age_binned [6]
##    writer_age_binned writer_politicalIdeology     n   prop
##    <chr>             <fct>                    <int>  <dbl>
##  1 18-29             Very Left-Wing             347 0.136 
##  2 18-29             Moderately Left-Wing       828 0.326 
##  3 18-29             Centrist                   696 0.274 
##  4 18-29             Moderately Right-Wing      287 0.113 
##  5 18-29             Very Right-Wing             87 0.0342
##  6 18-29             Other                      298 0.117 
##  7 30-39             Very Left-Wing             190 0.0935
##  8 30-39             Moderately Left-Wing       663 0.326 
##  9 30-39             Centrist                   635 0.312 
## 10 30-39             Moderately Right-Wing      327 0.161 
## # ℹ 26 more rows
…
